Lab 4
…
    filter, lag

The following objects are masked from 'package:base':

    intersect, setdiff, setequal, union

A. Penguins visualizations

For this lab, we’ll be using the palmerpenguins data. Use the following code to load the data.

library(palmerpenguins)
data(penguins)
palmerpenguins::penguins

# A tibble: 344 × 8
   species island    bill_length_mm bill_depth_mm flipper_length_mm body_mass_g
   <fct>   <fct>              <dbl>         <dbl>             <int>       <int>
 1 Adelie  Torgersen           39.1          18.7               181        3750
 2 Adelie  Torgersen           39.5          17.4               186        3800
 3 Adelie  Torgersen           40.3          18                 195        3250
 4 Adelie  Torgersen           NA            NA                  NA          NA
 5 Adelie  Torgersen           36.7          19.3               193        3450
 6 Adelie  Torgersen           39.3          20.6               190        3650
 7 Adelie  Torgersen           38.9          17.8               181        3625
 8 Adelie  Torgersen           39.2          19.6               195        4675
 9 Adelie  Torgersen           34.1          18.1               193        3475
10 Adelie  Torgersen           42            20.2               190        4250
# ℹ 334 more rows
# ℹ 2 more variables: sex <fct>, year <int>
…
# YOUR CODE HERE
worldcups <- readr::read_csv('https://raw.githubusercontent.com/rfordatascience/tidytuesday/master/data/2022/2022-11-29/worldcups.csv')

Rows: 21 Columns: 10
── Column specification ────────────────────────────────────────────────────────
Delimiter: ","
chr (5): host, winner, second, third, fourth
dbl (5): year, goals_scored, teams, games, attendance

ℹ Use `spec()` to retrieve the full column specification for this data.
ℹ Specify the column types or set `show_col_types = FALSE` to quiet this message.

worldcups

# A tibble: 21 × 10
    year host     winner second third fourth goals_scored teams games attendance
   <dbl> <chr>    <chr>  <chr>  <chr> <chr>         <dbl> <dbl> <dbl>      <dbl>
 1  1930 Uruguay  Urugu… Argen… USA   Yugos…           70    13    18     434000
 2  1934 Italy    Italy  Czech… Germ… Austr…           70    16    17     395000
 3  1938 France   Italy  Hunga… Braz… Sweden           84    15    18     483000
 4  1950 Brazil   Urugu… Brazil Swed… Spain            88    13    22    1337000
 5  1954 Switzer… West … Hunga… Aust… Urugu…          140    16    26     943000
 6  1958 Sweden   Brazil Sweden Fran… West …          126    16    35     868000
 7  1962 Chile    Brazil Czech… Chile Yugos…           89    16    32     776000
 8  1966 England  Engla… West … Port… Sovie…           89    16    32    1614677
 9  1970 Mexico   Brazil Italy  West… Urugu…           95    16    32    1673975
10  1974 Germany  West … Nethe… Pola… Brazil           97    16    38    1774022
# ℹ 11 more rows
…
