Midterm Project
…
rent <- readr::read_csv('https://raw.githubusercontent.com/rfordatascience/tidytuesday/master/data/2022/2022-07-05/rent.csv')

Rows: 200796 Columns: 17

── Column specification ────────────────────────────────────────────────────────
Delimiter: ","
chr (8): post_id, nhood, city, county, address, title, descr, details
dbl (9): date, year, price, beds, baths, sqft, room_in_apt, lat, lon

ℹ Use `spec()` to retrieve the full column specification for this data.
ℹ Specify the column types or set `show_col_types = FALSE` to quiet this message.

rent

# A tibble: 200,796 × 17
   post_id     date  year nhood city  county price  beds baths  sqft room_in_apt
   <chr>      <dbl> <dbl> <chr> <chr> <chr>  <dbl> <dbl> <dbl> <dbl>       <dbl>
 1 pre2013_… 2.01e7  2005 alam… alam… alame…  1250     2     2    NA           0
 2 pre2013_… 2.01e7  2005 alam… alam… alame…  1295     2    NA    NA           0
 3 pre2013_… 2.00e7  2004 alam… alam… alame…  1100     2    NA    NA           0
 4 pre2013_… 2.01e7  2012 alam… alam… alame…  1425     1    NA   735           0
 5 pre2013_… 2.00e7  2004 alam… alam… alame…   890     1    NA    NA           0
 6 pre2013_… 2.01e7  2006 alam… alam… alame…   825     1    NA    NA           0
 7 pre2013_… 2.01e7  2007 alam… alam… alame…  1500     1     1    NA           0
 8 63790969… 2.02e7  2017 alam… alam… alame…  2925     3    NA    NA           0
 9 pre2013_… 2.01e7  2009 alam… alam… alame…   450    NA     1    NA           0
10 pre2013_… 2.01e7  2006 alam… alam… alame…  1395     2    NA    NA           0
# ℹ 200,786 more rows
# ℹ 6 more variables: address <chr>, lat <dbl>, lon <dbl>, title <chr>,
#   descr <chr>, details <chr>
…
